
Evaluation time (1-image): 0.086s

verdadeiro (score=1.00000)
falso (score=0.00000)

Evaluation time (1-image): 0.084s

verdadeiro (score=0.99991)
falso (score=0.00009)

Evaluation time (1-image): 0.089s

verdadeiro (score=0.99810)
falso (score=0.00190)

Evaluation time (1-image): 0.102s

verdadeiro (score=0.99999)
falso (score=0.00001)

Evaluation time (1-image): 0.087s

verdadeiro (score=1.00000)
falso (score=0.00000)

Evaluation time (1-image): 0.084s

verdadeiro (score=1.00000)
falso (score=0.00000)

Evaluation time (1-image): 0.084s

verdadeiro (score=0.99934)
falso (score=0.00066)

Evaluation time (1-image): 0.085s

falso (score=0.58552)
verdadeiro (score=0.41448)

Evaluation time (1-image): 0.096s

verdadeiro (score=0.97593)
falso (score=0.02407)

Evaluation time (1-image): 0.086s

verdadeiro (score=0.99966)
falso (score=0.00034)

Evaluation time (1-image): 0.084s

falso (score=0.99888)
verdadeiro (score=0.00112)

Evaluation time (1-image): 0.095s

falso (score=0.99818)
verdadeiro (score=0.00182)

Evaluation time (1-image): 0.085s

falso (score=1.00000)
verdadeiro (score=0.00000)

Evaluation time (1-image): 0.084s

falso (score=1.00000)
verdadeiro (score=0.00000)

Evaluation time (1-image): 0.082s

falso (score=1.00000)
verdadeiro (score=0.00000)

Evaluation time (1-image): 0.108s

falso (score=1.00000)
verdadeiro (score=0.00000)

Evaluation time (1-image): 0.084s

falso (score=1.00000)
verdadeiro (score=0.00000)

Evaluation time (1-image): 0.083s

falso (score=1.00000)
verdadeiro (score=0.00000)

Evaluation time (1-image): 0.085s

falso (score=1.00000)
verdadeiro (score=0.00000)

Evaluation time (1-image): 0.088s

falso (score=1.00000)
verdadeiro (score=0.00000)

Evaluation time (1-image): 0.084s

falso (score=1.00000)
verdadeiro (score=0.00000)

Evaluation time (1-image): 0.082s

falso (score=1.00000)
verdadeiro (score=0.00000)

Evaluation time (1-image): 0.085s

falso (score=1.00000)
verdadeiro (score=0.00000)

Evaluation time (1-image): 0.084s

falso (score=0.99979)
verdadeiro (score=0.00021)

Evaluation time (1-image): 0.085s

verdadeiro (score=0.95722)
falso (score=0.04278)

Evaluation time (1-image): 0.084s

falso (score=0.99997)
verdadeiro (score=0.00003)

Evaluation time (1-image): 0.089s

falso (score=1.00000)
verdadeiro (score=0.00000)

Evaluation time (1-image): 0.084s

falso (score=1.00000)
verdadeiro (score=0.00000)

Evaluation time (1-image): 0.085s

falso (score=1.00000)
verdadeiro (score=0.00000)

Evaluation time (1-image): 0.086s

falso (score=1.00000)
verdadeiro (score=0.00000)

Evaluation time (1-image): 0.086s

falso (score=1.00000)
verdadeiro (score=0.00000)

Evaluation time (1-image): 0.087s

falso (score=1.00000)
verdadeiro (score=0.00000)

Evaluation time (1-image): 0.084s

falso (score=1.00000)
verdadeiro (score=0.00000)

Evaluation time (1-image): 0.087s

falso (score=1.00000)
verdadeiro (score=0.00000)

Evaluation time (1-image): 0.086s

falso (score=1.00000)
verdadeiro (score=0.00000)

Evaluation time (1-image): 0.088s

falso (score=1.00000)
verdadeiro (score=0.00000)

Evaluation time (1-image): 0.103s

falso (score=1.00000)
verdadeiro (score=0.00000)

Evaluation time (1-image): 0.085s

falso (score=1.00000)
verdadeiro (score=0.00000)

Evaluation time (1-image): 0.089s

falso (score=1.00000)
verdadeiro (score=0.00000)

Evaluation time (1-image): 0.087s

falso (score=1.00000)
verdadeiro (score=0.00000)

Evaluation time (1-image): 0.086s

falso (score=1.00000)
verdadeiro (score=0.00000)

Evaluation time (1-image): 0.086s

falso (score=0.99999)
verdadeiro (score=0.00001)

Evaluation time (1-image): 0.088s

falso (score=1.00000)
verdadeiro (score=0.00000)

Evaluation time (1-image): 0.089s

falso (score=1.00000)
verdadeiro (score=0.00000)

Evaluation time (1-image): 0.092s

falso (score=1.00000)
verdadeiro (score=0.00000)

Evaluation time (1-image): 0.089s

falso (score=0.91937)
verdadeiro (score=0.08063)

Evaluation time (1-image): 0.088s

verdadeiro (score=0.99994)
falso (score=0.00006)

Evaluation time (1-image): 0.087s

verdadeiro (score=1.00000)
falso (score=0.00000)